﻿DVM,WMS_INVENTORY_PROPERTIES,Properties used in inventory history
ACTIVITY_CODE,LOCK_CODE,SIGNAL,ASN_TYPE,DO_ACTION,INVENTORY_NAME,QTY_FIELD_NAME,ACCOUNT_ALIAS_TYPE,KEY_TYPE
14,,+,*,Y,PT,adj_qty,Receive,14__Receive_+_*_Y
14,,+,*,Y,PRE,adj_qty,Issue,14__Issue_+_*_Y
14,,-,*,Y,PRE,adj_qty,Receive,14__Receive_-_*_Y
14,,-,*,Y,PT,adj_qty,Issue,14__Issue_-_*_Y
14,HOL,+,*,Y,PT_PRE,adj_qty,Receive,14_HOL_Receive_+_*_Y
14,HOL,+,*,Y,PRE,adj_qty,Issue,14_HOL_Issue_+_*_Y
14,HOL,-,*,Y,PRE,adj_qty,Receive,14_HOL_Receive_-_*_Y
14,HOL,-,*,Y,PT_PRE,adj_qty,Issue,14_HOL_Issue_-_*_Y
17,,+,*,Y,PT,adj_qty,Receive,17__Receive_+_*_Y
17,,+,*,Y,PRE,adj_qty,Issue,17__Issue_+_*_Y
17,,-,*,Y,PRE,adj_qty,Receive,17__Receive_-_*_Y
17,,-,*,Y,PT,adj_qty,Issue,17__Issue_-_*_Y
17,HOL,+,*,Y,PT_PRE,adj_qty,Receive,17_HOL_Receive_+_*_Y
17,HOL,+,*,Y,PRE,adj_qty,Issue,17_HOL_Issue_+_*_Y
17,HOL,-,*,Y,PRE,adj_qty,Receive,17_HOL_Receive_-_*_Y
17,HOL,-,*,Y,PT_PRE,adj_qty,Issue,17_HOL_Issue_-_*_Y
19,,+,*,Y,PT,adj_qty,Receive,19__Receive_+_*_Y
19,,+,*,Y,PRE,adj_qty,Issue,19__Issue_+_*_Y
19,,-,*,Y,PRE,adj_qty,Receive,19__Receive_-_*_Y
19,,-,*,Y,PT,adj_qty,Issue,19__Issue_-_*_Y
53,,+,*,Y,PT,adj_qty,Receive,53__Receive_+_*_Y
53,,+,*,Y,PRE,adj_qty,Issue,53__Issue_+_*_Y
53,,-,*,Y,PRE,adj_qty,Receive,53__Receive_-_*_Y
53,,-,*,Y,PT,adj_qty,Issue,53__Issue_-_*_Y
53,HOL,+,*,Y,PT_RET,adj_qty,Receive,53_HOL_Receive_+_*_Y
53,HOL,+,*,Y,PRE,adj_qty,Issue,53_HOL_Issue_+_*_Y
53,HOL,-,*,Y,PRE,adj_qty,Receive,53_HOL_Receive_-_*_Y
53,HOL,-,*,Y,PT_RET,adj_qty,Issue,53_HOL_Issue_-_*_Y
29,,+,*,Y,PRE,adj_qty,Receive,29__Receive_+_*_Y
29,,+,*,Y,PT,adj_qty,Issue,29__Issue_+_*_Y
22,HOL,+,*,Y,PRE_RET,orig_qty,Receive,22_HOL_Receive_+_*_Y
22,HOL,+,*,Y,PT,orig_qty,Issue,22_HOL_Issue_+_*_Y
23,HOL,+,*,Y,PRE_RET,orig_qty,Receive,23_HOL_Receive_+_*_Y
23,HOL,+,*,Y,PT,orig_qty,Issue,23_HOL_Issue_+_*_Y
24,HOL,+,*,Y,PT,orig_qty,Receive,24_HOL_Receive_+_*_Y
24,HOL,+,*,Y,PT_RET,orig_qty,Issue,24_HOL_Issue_+_*_Y
25,HOL,+,*,Y,PT_RET,orig_qty,Receive,25_HOL_Receive_+_*_Y
25,HOL,+,*,Y,PT,orig_qty,Issue,25_HOL_Issue_+_*_Y
22,DEV,+,*,N,RET,orig_qty,Receive,22_DEV_Receive_+_*_N
22,DEV,+,*,N,CEVE,orig_qty,Issue,22_DEV_Issue_+_*_N
23,DEV,+,*,N,RET,orig_qty,Receive,23_DEV_Receive_+_*_N
23,DEV,+,*,N,CEVE,orig_qty,Issue,23_DEV_Issue_+_*_N
24,DEV,+,*,N,CEVE,orig_qty,Receive,24_DEV_Receive_+_*_N
24,DEV,+,*,N,RET,orig_qty,Issue,24_DEV_Issue_+_*_N
25,DEV,+,*,Y,PT,orig_qty,Receive,25_DEV_Receive_+_*_Y
25,DEV,+,*,Y,RET,orig_qty,Issue,25_DEV_Issue_+_*_Y
49,DEV,+,*,N,RET,orig_qty,Receive,49_DEV_Receive_+_*_N
22,RET,+,*,N,RET,orig_qty,Receive,22_RET_Receive_+_*_N
22,RET,+,*,N,CEVE,orig_qty,Issue,22_RET_Issue_+_*_N
23,RET,+,*,N,CEVE,orig_qty,Issue,23_RET_Issue_+_*_N
23,RET,+,*,N,RET,orig_qty,Receive,23_RET_Receive_+_*_N
24,RET,+,*,N,RET,orig_qty,Issue,24_RET_Issue_+_*_N
24,RET,+,*,N,CEVE,orig_qty,Receive,24_RET_Receive_+_*_N
25,RET,+,*,N,RET,orig_qty,Issue,25_RET_Issue_+_*_N
25,RET,+,*,N,CEVE,orig_qty,Receive,25_RET_Receive_+_*_N
22,PF,+,*,Y,PT,orig_qty,Issue,22_PF_Issue_+_*_Y
22,PF,+,*,Y,RET,orig_qty,Receive,22_PF_Receive_+_*_Y
23,PF,+,*,Y,PT,orig_qty,Issue,23_PF_Issue_+_*_Y
23,PF,+,*,Y,RET,orig_qty,Receive,23_PF_Receive_+_*_Y
49,DEV,+,*,N,CEVE,orig_qty,Issue,49_DEV_Issue_+_*_N
22,BAR,+,*,N,CEVE,orig_qty,Issue,22_BAR_Issue_+_*_N
22,BAR,+,*,N,BARREDURA,orig_qty,Receive,22_BAR_Receive_+_*_N
23,BAR,+,*,N,CEVE,orig_qty,Issue,23_BAR_Issue_+_*_N
23,BAR,+,*,N,BARREDURA,orig_qty,Receive,23_BAR_Receive_+_*_N
24,BAR,+,*,N,CEVE,orig_qty,Receive,24_BAR_Receive_+_*_N
24,BAR,+,*,N,BARREDURA,orig_qty,Issue,24_BAR_Issue_+_*_N
25,BAR,+,*,N,CEVE,orig_qty,Receive,25_BAR_Receive_+_*_N
25,BAR,+,*,N,BARREDURA,orig_qty,Issue,25_BAR_Issue_+_*_N
49,DEV,+,*,Y,RET,orig_qty,Receive,49_DEV_Receive_+_*_Y
49,DEV,+,*,Y,PT,orig_qty,Issue,49_DEV_Issue_+_*_Y
49,LOTE1,+,*,Y,RET,orig_qty,Receive,49_LOTE1_Receive_+_*_Y
49,LOTE1,+,*,Y,PT,orig_qty,Issue,49_LOTE1_Issue_+_*_Y
49,LOTE2,+,*,Y,RET,orig_qty,Receive,49_LOTE2_Receive_+_*_Y
49,LOTE2,+,*,Y,PT,orig_qty,Issue,49_LOTE2_Issue_+_*_Y
19,RETURN,+,*,Y,RET,adj_qty,Receive,19_RETURN_Receive_+_*_Y
19,RETURN,+,*,Y,PRE_RET,adj_qty,Issue,19_RETURN_Issue_+_*_Y
19,RETURN,-,*,Y,RET,adj_qty,Issue,19_RETURN_Issue_-_*_Y
19,RETURN,-,*,Y,PRE_RET,adj_qty,Receive,19_RETURN_Receive_-_*_Y
19,LOTE1,+,*,Y,RET,adj_qty,Receive,19_LOTE1_Receive_+_*_Y
19,LOTE1,+,*,Y,PRE_RET,adj_qty,Issue,19_LOTE1_Issue_+_*_Y
19,LOTE1,-,*,Y,RET,adj_qty,Issue,19_LOTE1_Issue_-_*_Y
19,LOTE1,-,*,Y,PRE_RET,adj_qty,Receive,19_LOTE1_Receive_-_*_Y
19,LOTE2,+,*,Y,RET,adj_qty,Receive,19_LOTE2_Receive_+_*_Y
19,LOTE2,+,*,Y,PRE_RET,adj_qty,Issue,19_LOTE2_Issue_+_*_Y
19,LOTE2,-,*,Y,RET,adj_qty,Issue,19_LOTE2_Issue_-_*_Y
19,LOTE2,-,*,Y,PRE_RET,adj_qty,Receive,19_LOTE2_Receive_-_*_Y
17,RETURN,+,*,Y,RET,adj_qty,Receive,17_RETURN_Receive_+_*_Y
17,RETURN,+,*,Y,PRE_RET,adj_qty,Issue,17_RETURN_Issue_+_*_Y
17,RETURN,-,*,Y,RET,adj_qty,Issue,17_RETURN_Issue_-_*_Y
17,RETURN,-,*,Y,PRE_RET,adj_qty,Receive,17_RETURN_Receive_-_*_Y
