﻿DVM,INTERFACE_STATUS_CODE,Execution status of interfaces
STATUS_CODE,STATUS,EQUIPMENT_CONTROL,OSP,CAE_VALIDATION
RUN,RUNNING,NA,NA,NA
FAULT,FAILED,NA,NA,NA
ABORT,ABORTED,NA,NA,NA
SUCCESS,SUCCESS,NA,NA,NA
true,SUCCESS,NA,NA,NA
false,FAILED,NA,NA,NA
PENDING,PENDING,PENDIENTE,NA,NA
CLOSE,NA,NA,ORA_CLOSED,NA
COMPLETE,COMPLETED,NA,COMPLETED,NA
SEND,NA,NA,NA,ENVIADO
CORRECT,COMPLETE,N/A,N/A,N/A
INCORRECT,INCOMPLETE,N/A,N/A,N/A
