﻿DVM,INTERFACE_PROPERTY,Lookup for general properties in all interfaces for all systems
DESCRIPTION,COMMON,OEC_01,OCC_01,ERP_01,OIC_01,WMS_01
SourceSystem value for Customer in OEC,SOURCE_SYSTEM,,OCC_AR,,,
Specify the output report format,ATTRIBUTE_FORMAT,,,pdf,,
Specify container code prefix concat,CONTAINER_CODE,,,,CBA_,
Specify container status,CONTAINER_STATUS,,,,Pendiente,
"Specify container approved, confirmed or removed",CONTAINER_ACTION,,,,false,
Order type for customer container out,CUST_CONT_OUT_ORDER_TYPE,,,,,CAF_VENTA_PT
Order type for primary container out,PRIM_CONT_OUT_ORDER_TYPE,,,,,TO
Specify uom code prefix concat,CONTAINER_UOM_CODE,,,,C,
Specify identifier concat,CONTAINER_ID_CODE,,,,-C,
Value of fetchStart in web services,FETCH_START,,,0,,
Value of fetchSize in web services,FETCH_SIZE,,,1,,
Operator use in web services,FIND_OPERATOR,,,=,,
Conjunction use in web services,FIND_CONJUNCTION,,,And,,
,ATTR,,,,,
Regular expression for splitting shipment,SPLIT_SHIPMENT_REGEX,,,,,(CEVE_MANUAL)|(CLIENTE_DIRECTO)|(SAMPLE_SALES_ORDER)|(CEVE)|(.*VENTA_EXPENDIO.*)|(.*VENTA_FRIO.*)|(.*SAMPLES.*)|(.*SALES_ORDER.*)|(.*CAF_VENTA_PT.*)
Application key for authorization,APPLICATION_KEY,,eyJ0eXAiOiJKV1QiLCJhbGciOiJIUzI1NiJ9.eyJzdWIiOiIyYmFjNDc0YS1iOTY1LTQzNTgtYTJiOC01MTc5YmIwYjU2MGUiLCJpc3MiOiJhcHBsaWNhdGlvbkF1dGgiLCJleHAiOjE2MjA4NjY2MjIsImlhdCI6MTU4OTMzMDYyMn0=.x7/BypIIEAd34r0x2qQ23mhFQ7GhmO87nlrvdeKwFrY=,,,
Token type for authorization,TOKEN_TYPE,,Bearer,,,
Content type for authentication,CONTENT_TYPE,,application/x-www-form-urlencoded,,,
Grant type for authentication,GRANT_TYPE,,client_credentials,,,
