﻿DVM,INTERFACE_ERROR_CODE,Error Codes used by all the integrations
CODE,USER_MESSAGE,CATEGORY,ERROR_CODE
GEN-0000,Execution success,GENERAL,0000
INBOUND-0001,Could not extract data information from Source App. Review Job Parameters,DATA_EXTRACTION,I0001
INBOUND-0002,Could not extract data information from Source App. Review Data Model parameters,DATA_EXTRACTION,I0002
GEN-0300,Remote Fault. Interface could not invoke Service,GENERAL,G0300
GEN-0303,Timeout Fault: Service invocation took more time than timeout configurations,GENERAL,G0303
GEN-0306,Data not Found,GENERAL,G0306
OUTBOUND-0001,Fault generated in ERP Cloud Adapter. Review parameters,OUTBOUND_TRANSACTION,O0001
OUTBOUND-0002,Fault generated in OTM- LOGISTIC Cloud Adapter. Review parameters,OUTBOUND_TRANSACTION,O0002
OUTBOUND-0003,Fault generated in REST Adapter while invoking API. Review parameters,OUTBOUND_TRANSACTION,O0003
GEN-0001,Fault generated trying to lookup some date in a XML message,GENERAL,G0001
INBOUND-0003,Could not download Job Details from ERP,DOWNLOAD_DETAIL,I0003
GEN-0002,"Fault generated due StageFiles Activities, Review XML data",GENERAL,G0002
INBOUND-0004,Fault generated while processing data sent to WMS Application,INBOUND_TRANSACTION,I0004
INBOUND-0005,Fault generated while processing data sent to OTM Application,INBOUND_TRANSACTION,I0005
GEN-0400,Unknown Activity,GENERAL,G0400
GEN-0307,Fault generated due general validations of the integration,GENERAL,G0307
OUTBOUND-0004,Could not import data information to Target App. Review Parameters,DATA_IMPORT,O0004
GEN-0003,Fault generated while invoking DB. Review query parameters,GENERAL,G0003
INBOUND-0006,Fault generated while processing data sent to ERP Application,INBOUND_TRANSACTION,I0006
ORD-001,Fault generated while processing data sent,GENERAL,Ord0001
GEN-0500,Failure generated when performing a data query,GENERAL,G0500
GEN-0600,An error occurred when invoking the service to attach to the invoice:,ATTACHMENT_INVOICE,G0600
GEN-0004,Invalid input data.,GENERAL,G0004
GEN-0005,Fault generated while processing data with insert And Process Interface Rows to ERP Application,INBOUND_TRANSACTION,G0005
GEN-0006,Unknown Fault. See details for more information.,GENERAL,G0006
INBOUND-0007,Lock Record,INBOUND_TRANSACTION,I0007
INBOUND-008,Invalid Amount,INBOUND_TRANSACTION,I0008
INBOUND-009,The cash receipt ID takes precedence over the receipt number.,INBOUND_TRANSACTION,I009
INBOUND-010,Invalid Transaction Number,INBOUND_TRANSACTION,I010
INBOUND-011,Error! It failed to create receipt. Validate Customer or Invoice Number.,INBOUND_TRANSACTION,I011
INBOUND-012,Error! Failed to create Receipt. Validate Payment Method,INBOUND_TRANSACTION,I012
INBOUND-013,Error! The stock could not be updated,INBOUND_TRANSACTION,I013
OUTBOUND-0005,SubInventory not Found,OUTBOUND-TRANSACTION,O0005
OUTBOUND-0006,Request run resulted in a WARNING,OUTBOUND-TRANSACTION,O0006
INBOUND-014,"Error!, nose puede crear/actualizar el ITEM",INBOUND-013,I014
