﻿DVM,ORDER_STATUS_HEADER_LINES,Order Status for the header and lines
NAME_FIELD_ERP,VALUE_FIELD_ERP,NAME_FIELD_OEC,VALUE_FIELD_OEC
StatusCode,CLOSED,__ORACO__Status_c,ORA_ACO_ORDER_STATUS_DELIVERED
Status,Closed,__ORACO__LastRequestStatus_c,ORA_ACO_ORDER_STATUS_DELIVERED
StatusCode,CANCELED,__ORACO__Status_c,ORA_ACO_ORDER_STATUS_CANCELED
Status,Canceled,__ORACO__LastRequestStatus_c,ORA_ACO_ORDER_STATUS_CANCELED
StatusCode,CANCEL_PENDING,__ORACO__Status_c,ORA_ACO_ORDER_STATUS_CANCELED
Status,Cancellation Pending,__ORACO__LastRequestStatus_c,ORA_ACO_ORDER_STATUS_CANCELED
