﻿DVM,INTERFACE_PHASE_CODE,Phase's information of Interface executions
INTERFACE_TYPE,PHASE_CODE,PHASE
INBOUND,SUBMIT_JOB,SUBMIT JOB
INBOUND,DOWNLOAD_JOB,DOWNLOAD JOB EXTRACTION REPORT
INBOUND,PROCESS_DATA,PROCESSING DATA IN TARGET APPLICATION
OUTBOUND,XFORM,TRANSFORM MESSAGE
OUTBOUND,PROCESS_TRANSACTION,PROCESSING TRANSACTION IN TARGET APPLICATION
BOTH,DONE,SUCCESS
OUTBOUND,INVOKE_ADAPTER,PROCESSING DATA IN ADAPTER
OUTBOUND,DATA_ERROR,START FAULT HANDLER
OUTBOUND,CLOUD_ADAPTER_FAULT,ERP ADAPTER FAILURE
OUTBOUND,SERVICE,INVOKE SERVICE
OUTBOUND,ISSUE,ISSUE CREATION
OUTBOUND,RECEIP,RECEIP CREATION
OUTBOUND,ASN,ASN
OUTBOUND,RECEIP_PT,RECEIP CREATION PT
OUTBOUND,RECEIPT_PO,RECEIPT CREATION PO
OUTBOUND,CALLBACK,CALLBACK
