﻿DVM,CUSTOMER_PROPERTIES,Lookup for properties values in all customer integrations
PROPERTY,VALUE,SET_ID
SOURCE_SYSTEM,OCC_AR,
AttrCusAccId,CustomerAccountId,
AttrCusAccSiteUse,CustomerAccountSiteUse,
AttrSiteUse,SiteUseCode,
ValBillTo,BILL_TO,
AttrCusAccSit,CustomerAccountSite,
AttrParName,PartyName,
AR,ARCAF,300000306058432
PartyType,ORGANIZATION,
AttrAccNum,AccountNumber,
ValShipTo,SHIP_TO,
MailStop_Cadena,CADENA,
MailStop_Sucursal,SUCURSAL,
StartDate,1950-01-01,
AttrCusAccInf,CustAcctInformation,
idCue,idCuenta,
