﻿DVM,INTERFACE_CONFIGURATION_COMMONS,Lookup of default values in interfaces
INTERFACE_NAME,COMMON,VALUE
,FetchStart,0
,FetchSize,1
,FindOperator,=
,FALSE,False
,TRUE,True
,STATUS_FAIL,FAILED
,STATUS_SUCCESS,SUCCESS
LOCKBOX,ID_DEVELOPER,ARLCBX
OUT_ERP_CAE_VALIDATION_TO_AP,OPERATION_MODE,SINGLE
OUT_ERP_CAE_VALIDATION_TO_AP,ENTITY_NAME,Payables Invoice
OUT_ERP_CAE_VALIDATION_TO_AP,DFF_ATTRIBUTES_FLEX_FIELD,argENVIADO
IN_LGFDATA_TO_WMS,Async,false
