﻿DVM,DATA_MODEL_CONFIGURATIONS,Contains all configurations of every data model
DATAMODEL_NAME,REPORT_ABSOLUTEPATH,PARAMATER_NAME_01,PARAMATER_NAME_02,PARAMATER_NAME_03,PARAMATER_NAME_04,PARAMATER_NAME_05,PARAMATER_NAME_06
XXDM_INTERFACE_COBRANZA,/Custom/Integrations/FacturasAR/XXDM_INTERFACE_COBRANZA.xdm,P_BU,P_AC,,,,
XX_DM_ARTICULOS_V2,/Custom/B Inventory/Data Models/XX_DM_ARTICULOS_V2.xdm,P_BU,P_ORG_CODE,P_ITEM_NUMBER,,,
Extract_OM_Work_Order,/Custom/Integrations/LogFire/Data Models/Extract OSP Work Order Data Model.xdm,p_pais,p_fecha_inicial,p_fecha_final,,,
ASSORTMENT_DM,/Custom/INTEGRACION/ASSORTMENTS_CATALOGS_OCC.xdm,INICIO,FIN,,,,
Extract INV To WMS Items Prepack Data Model,/Custom/Integrations/LogFire/Data Models/Extract INV To WMS Items Prepack Data Model.xdm,p_fecha_inicial,p_fecha_final,p_pais,p_item_number,,
MANAGE_ITEMS_INTEGRATION_V3,/DABD/XX_DM_ARTICULOS_V2.xdm,P_BU,P_ORG_CODE,P_ITEM_NUMBER,,,
DM_Disponibilidad_Stock,/Custom/Integrations/Distribucion Pobreza/Data Models/DM_Disponibilidad_Stock.xdm,p_pais,p_org_code,p_subinv,p_fecha_inicial,p_fecha_final,
PRODUCT_ASSORMENT_DM,/Custom/INTEGRACION/PRODUCTS_ASSORTMENT_PLAN.xdm,,,,,,
CUSTOMER_ASSORMENT_DM,/Custom/INTEGRACION/ACCOUNTS_ASSORTMENT_PLAN.xdm,,,,,,
TRANSFER_ORDER_DM,/Custom/Integrations/LogFire/Data Models/Extract INV To WMS Transfer Order Data Model.xdm,p_fecha_inicial,p_fecha_final,p_pais,,,
DM_Disponibilidad_Stock_details,/Custom/Integrations/Distribucion Pobreza/Data Models/DM_Disponibilidad_Stock_Dtl.xdm,p_pais,p_org_code,p_subinv,p_fecha_inicial,p_fecha_final,
CALCULO_INICIAL_TOPE_DEV,/Custom/INTEGRACION/CALCULO_INICIAL_TOPE_DEV.xdm,,,,,,
recepcion_equipo_clientes DM,/TMP/Prueba Daniel/recepcion_equipo_clientes DM.xdm,,,,,,
ACCOUNT_BALANCE,/Custom/Supply Chain Management/Order Management/Argentina/Integration/Saldo Clientes/Accounts_balance_argentina DM.xdm,p_account,p_type,,,,
XXDM AP_VALIDACION_CAE,/Formatos Fiscales/datamodel/XXDM AP_VALIDACION_CAE.xdm,P_NUM_REG,P_BU,,,,
CUSTOMER_PRICING,/Custom/Supply Chain Management/Order Management/Argentina/Integration/Pricing/DM_PRICING_CUSTOMERS.xdm,-P0DT0H10M,P1D,P_NOMBRE_LP,,,
PRICEBOOK,/Custom/Supply Chain Management/Order Management/Argentina/Integration/Pricing/DM_PRICING.xdm,-P0DT0H10M,P1D,P_NOMBRE_LP1,,,
DM_Extract_Pedidos_Devolucion,/DABD/Data Models/Devoluciones/DM_Extract_Pedidos_Devolucion.xdm,p_order_number1,p_fecha_final,p_pais,,,
DM_ORDER_MANAGEMENT_CABECERA,/Custom/Supply Chain Management/Order Management/Argentina/Integration/Order Management/DM_ORDER_MANAGEMENT_CABECERA.xdm,P_BU,P_FECHA_INICIO,P_FECHA_FIN,,,
DM_ORDER_MANAGEMENT_LINEAS,/Custom/Supply Chain Management/Order Management/Argentina/Integration/Order Management/DM_ORDER_MANAGEMENT_LINEAS.xdm,P_HEADER_ID,P_DELIVERY_ID,,,,
FORMATO_ORDER,/Formatos Fiscales/reportes/FORMATO-REMITO.xdo,P_BU,P_NUM_ORDEN,P_REIMPRESION,P_COPIAS,P_DELIVERY,
DM_TRANSACCIONES_HEADERS,/Custom/Integrations/FacturasAR/XX_DM_AR_CAT_TRANSACCIONES_HEADERS.xdm,P_BU,P_TRX_DATE_INI,P_TRX_DATE_FIN,,,
FORMATO_TRANSACTION,/Formatos Fiscales/reportes/FORMATO-FACTURA.xdo,P_BU,P_NUMERO_FACTURA,P_REIMPRESION,P_COPIAS,,
DM_PRIMARY_CONTAINER_IN,/TMP/Prueba Daniel/TO_Control_equipo DM.xdm,,,,,,
DM_Salida_Control_Documental,/Custom/Integrations/FacturasAR/DM_Salida_Control_Documental.xdm,P_BU,P_TRX_DATE_INI,P_TRX_DATE_FIN,,,
DM_RECEPCION_CLIENTES_HEADER,/TMP/Prueba Daniel/recepcion_equipo_clientes_header DM.xdm,P_BU,p_start_date,p_end_date,,,
DM_RECEPCION_CLIENTES_LINE,/TMP/Prueba Daniel/recepcion_equipo_clientes_lines DM.xdm,header_id,P_BU,p_start_date,p_end_date,,
DM_RECEPCION_PRIMARIA_HEADER,/TMP/Prueba Daniel/TO_Control_equipo_header DM.xdm,P_BU,start_date,end_date,p_org_code,,
DM_RECEPCION_PRIMARIA_LINE,/TMP/Prueba Daniel/TO_Control_equipo_lines DM.xdm,P_BU,start_date,end_date,p_org_code,header_id,
ASSORTMENT_PLAN_POR_PUBLICAR,/Custom/INTEGRACION/ASSORTMENT_PLAN_POR_PUBLICAR.xdm,,,,,,
Extract OSP_RLSD to WMS Purchase Order Data Model,/Custom/Integrations/LogFire/Data Models/Extract OSP_RLSD to WMS Purchase Order Data Model.xdm,p_work_order_number,p_no_documento,p_pais,,,
DM_Disponibilidad_Stock_V2_DTL,/Custom/Integrations/Distribucion Pobreza/Rep_Disponibilidad_Stock_Dtl_DM.xdo,p_pais,p_org_code,p_fecha_inicial,,,
Extract OSP_CLSD to WMS Purchase Order Data Model,/DABD/Data Models/Orden de Compra OSP/Extract OSP_CLSD to WMS Purchase Order Data Model.xdm,p_no_documento,p_pais,,,,
FORMATO_ABASTO,/XX Local Solution/Reporte de Abasto Logística_v1.xdo,p_EntidadLegal,p_Origen,p_NroOrdenVenta,p_UdmFinal,,
DM_TRX_LINES,/Custom/Integrations/FacturasAR/X_DM_AR_CAT_TRX_LINES.xdm,P_BU,P_CUSTOMER_TRX_ID,,,,
DM_Disponibilidad_Stock_DM,/Custom/Integrations/Distribucion Pobreza/Data Models/DM_Disponibilidad_Stock_DM.xdm,p_pais,p_org_code,p_need_by_date,,,
DM_Disponibilidad_Stock_Dtl_DM,/Custom/Integrations/Distribucion Pobreza/Data Models/DM_Disponibilidad_Stock_Dtl_DM.xdm,p_pais,p_org_code,p_fecha_inicial,,,
SALDOS_CLIENTES_SUCURSAL,/Custom/Supply Chain Management/Order Management/Argentina/Integration/Saldo Clientes/DM_AR_EXTRAE_SALDO_CLIENTES_SUCURSAL.xdm,P_BU,,,,,
DMSHIPMENTLINES,/Custom/Integrations/LogFire/Data Models/Extract WMS Shipment Lines Data Model ERPOFF.xdm,SHIPMENT_NUM,,,,,
EXTRACT_ITEMS,/Custom/Integrations/LogFire/Data Models/DM Extract INV To DBCS Items with UOM ERPOFF.xdm,p_start_date,p_end_date,p_company_code,,,
DM_TRANSACTION_HEADER,/Custom/Integrations/FacturasAR/XX_DM_AR_CAT_TRANSACCIONES_HEADERS_UPDT.xdm,P_BU,P_TRX_DATE_INI,P_TRX_DATE_FIN,,,
DM_TRANSACTION_LINE,/Custom/Integrations/FacturasAR/X_DM_AR_CAT_TRX_LINES.xdm,P_BU,P_CUSTOMER_TRX_ID,,,,
SCM_CARRIERS_DM,/Custom/Integrations/CX/Data Models/SCM_CARRIERS_DM.xdm,p_bu_name,p_short_name,,,,
Reporte_Extrae_Transacciones_Pool,/Custom/Integrations/Distribucion Pobreza/Reporte_Extrae_Trx_Pool.xdo,P_BU,P_TRX_DATE_INI,P_TRX_DATE_FIN,P_MINUTOS,,
Extract INV To WMS Items Data Model,/Custom/Integrations/LogFire/Data Models/Extract INV To WMS Items Data Model.xdm,p_fecha_inicial,p_fecha_final,p_pais,,,
