﻿DVM,INTERFACE_CONFIGURATION,General properties for Interface's configurations,,,,,,,,
INTERFACE,CALLBACK_ENDPOINT,RECOVERY_SUBMIT,INTERFACE_ID,INTERFACE_NAME,DESCRIPTION,TARGET_APP,SOURCE_APP,RELATIV_URI,INTERFACE_TYPE,AUTO_RECOVERY
IN_OM_TO_WMS_RMA,https://gboicglr1pr-aucgbss02.integration.ocp.oraclecloud.com/ic/ws/integration/v1/flows/soap/ICWC_WMS-065_CALLBACK/1.0/,0,ICWC_WMS-065,RMA,Create Receipt advice from RMA,WMS,ERP,/ic/api/integration/v1/integrations/ICWC_WMS-065%7C01.00.0000/schedule/jobs,IN,FALSE
IN_AP_TO_WMS_PURCHASE_ORDERS,https://gboicglr1pr-aucgbss02.integration.ocp.oraclecloud.com/ic/ws/integration/v1/flows/soap/ICWC_WMS-071_CALLBACK/1.0/,0,ICWC_WMS-071,PURCHASE_ORDER,Import Purchase Orders into WMS,WMS,ERP,/ic/api/integration/v1/integrations/ICWC_WMS-071%7C01.00.0000/schedule/jobs,IN,FALSE
IN_AP_TO_WMS_SUPPLIERS,https://gboicglr1pr-aucgbss02.integration.ocp.oraclecloud.com/ic/ws/integration/v1/flows/soap/ICWC_WMS-072_CALLBACK/1.0/,0,ICWC_WMS-072,SUPPLIERS,Import Suppliers Catalog into WMS,WMS,ERP,/ic/api/integration/v1/integrations/ICWC_WMS-072%7C01.00.0000/schedule/jobs,IN,FALSE
IN_INV_TO_WMS_INVENTORY_ORGANIZATIONS,https://gboicglr1pr-aucgbss02.integration.ocp.oraclecloud.com/ic/ws/integration/v1/flows/soap/ICWC_WMS-074_CALLBACK/1.0/,0,ICWC_WMS-074,INVENTORY_ORGANIZATIONS,Import Inventory Organizations into WMS,WMS,ERP,/ic/api/integration/v1/integrations/ICWC_WMS-074%7C01.00.0000/schedule/jobs,IN,FALSE
IN_INV_TO_WMS_TRANSFER_ORDERS,https://gboicglr1pr-aucgbss02.integration.ocp.oraclecloud.com/ic/ws/integration/v1/flows/soap/ICWC_WMS-067_CALLBACK/1.0/,0,ICWC_WMS-067,TRANSFER_ORDER,Create Shipment Request for Transfer Orders,WMS,ERP,/ic/api/integration/v1/integrations/ICWC_WMS-067%7C01.00.0000/schedule/jobs,IN,FALSE
IN_OM_TO_WMS_SALES_ORDERS,https://gboicglr1pr-aucgbss02.integration.ocp.oraclecloud.com/ic/ws/integration/v1/flows/soap/ICWC_WMS-066_CALLBACK/1.0/,0,ICWC_WMS-066,SALES_ORDER,Create Shipment Request for Sales Orders,WMS,ERP,/ic/api/integration/v1/integrations/ICWC_WMS-066%7C01.00.0000/schedule/jobs,IN,FALSE
IN_PLM_TO_WMS_ITEMS,https://gboicglr1pr-aucgbss02.integration.ocp.oraclecloud.com/ic/ws/integration/v1/flows/soap/ICWC_WMS-075_CALLBACK/1.0/,0,ICWC_WMS-075,ITEMS,Import Item Master into WMS Cloud,WMS,ERP,/ic/api/integration/v1/integrations/ICWC_WMS-075%7C01.00.0000/schedule/jobs,IN,FALSE
IN_WIE_TO_WMS_WORK_ORDERS,https://gboicglr1pr-aucgbss02.integration.ocp.oraclecloud.com/ic/ws/integration/v1/flows/soap/ICWC_WMS-073_CALLBACK/1.0/,0,ICWC_WMS-073,WORK_ORDER,Import Work Orders into WMS,WMS,ERP,/ic/api/integration/v1/integrations/ICWC_WMS-073%7C01.00.0000/schedule/jobs,IN,FALSE
IN_INV_TO_WMS_MISC_RECEIPT_ADVICE,,0,ICWC_WMS-078,MISC RECEIPT ADVICE,Create Inbound Shipments based on Miscellaneous Receipt Advices,WMS,ERP,/ic/api/integration/v1/integrations/ICWC_WMS-078%7C01.00.0000/schedule/jobs,IN,FALSE
IN_ERP_TO_WMS_OSP_SALES_ORDER,https://gboicglr1pr-aucgbss02.integration.ocp.oraclecloud.com/ic/ws/integration/v1/flows/soap/IN_ERP_TO_WMS_OSP_SALE_ORDE_CALL/1.0/,0,ICWC-WMS-233,SALES_ORDER_OSP,,WMS,ERP,/ic/api/integration/v1/integrations/IN_ERP_TO_WMS_OSP_SALE_ORDE%7C01.00.0000/schedule/jobs,IN,FALSE
OUT_SCM_TO_WMS_ITEM_BARCODE,https://gboicglr1pr-aucgbss02.integration.ocp.oraclecloud.com/ic/ws/integration/v1/flows/soap/OUT_SCM_TO_WMS_ITEM_BARC_CALL/1.0/,0,ICWC_WMS-203_BUSA,ITEM_BARCODE,,WMS,SCD,/ic/api/integration/v1/integrations/OUT_SCM_TO_WMS_ITEM_BARCO%7C01.00.0000/schedule/jobs,OUT,FALSES
OUT_SCM_TO_WMS_ITEM_BARCODE_CLID,https://gboicglr1pr-aucgbss02.integration.ocp.oraclecloud.com/ic/ws/integration/v1/flows/soap/OUT_SCM_TO_WMS_ITEM_BARC_CALL/1.0/,0,ICWC_WMS-203_CLID,OUT_SCM_TO_WMS_ITEM_BARCODE_CLID,-,WMS,ERP,-,OUT,FALSE
OUT_SCM_TO_WMS_ITEM_BARCODE_PEBPE,https://gboicglr1pr-aucgbss02.integration.ocp.oraclecloud.com/ic/ws/integration/v1/flows/soap/OUT_SCM_TO_WMS_ITEM_BARC_CALL/1.0/,0,ICWC_WMS-203_PEBPE,OUT_SCM_TO_WMS_ITEM_BARCODE_PEBPE,-,WMS,ERP,-,OUT,FALSE
OUT_SCM_TO_WMS_ITEM_BARCODE_PYBPY,https://gboicglr1pr-aucgbss02.integration.ocp.oraclecloud.com/ic/ws/integration/v1/flows/soap/OUT_SCM_TO_WMS_ITEM_BARC_CALL/1.0/,0,ICWC_WMS-203_PYBPY,OUT_SCM_TO_WMS_ITEM_BARCODE_PYBPY,-,WMS,ERP,-,OUT,FALSE
BO_JOB,,0,BO_JOB,BO_JOB,Business Object Job relative URI for HCM Outbound Integrations,,,/ic/builder/rt/Integrations_Configuration/live/resources/data/Job,BUSINESS_OBJECT,FALSE
IN_LGFDATA_TO_WMS,,0,C2C_WMS_0007,IN_LGFDATA_TO_WMS,Upload Lgfdata schema to WMS,OIC,WMS,/ic/api/integration/v1/flows/rest/C2C_WMS_0007/1.0/wms/inbound,IN,FALSE
INTEGRATION_MONITORING_DASHBOARD,,0,INTEGRATION_MONITORING_DASHBOARD,INTEGRATION_MONITORING_DASHBOARD,Business Object that stores result instances about integrations instances,VB,OIC,/ic/builder/rt/cloud_integration_dashboard/live/resources/data/Instances,IN,FALSE
INTEGRATION_MONITORING_DH_UPSERT_BY_JOB_ID,,0,INTEGRATION_MONITORING_DH_UPSERT_BY_JOB_ID,INTEGRATION_MONITORING_DASHBOARD,Business Object that stores result instances about integrations instances,VB,OIC,/ic/builder/rt/cloud_integration_dashboard/live/resources/data/Dummy/1/action/upsertInstanceByJobId,IN,FALSE
INTEGRATION_MONITORING_DH_UPSERT_BY_MESSAGE_ID,,0,INTEGRATION_MONITORING_DH_UPSERT_BY_MESSAGE_ID,INTEGRATION_MONITORING_DASHBOARD,Business Object that stores result instances about integrations instances,VB,OIC,/ic/builder/rt/cloud_integration_dashboard/live/resources/data/Dummy/1/action/upsertInstanceByMessageID,IN,FALSE
INTEGRATION_MONITORING_DH_UPSERT_BY_INSTANCE_ID,,0,INTEGRATION_MONITORING_DH_UPSERT_BY_INSTANCE_ID,INTEGRATION_MONITORING_DASHBOARD,Business Object that stores result instances about integrations instances,VB,OIC,/ic/builder/rt/cloud_integration_dashboard/live/resources/data/Dummy/1/action/upsertInstanceById,IN,FALSE
IMPRESION_DOCUMENTOS_ORDENES,,,IMP_DOC_ORD,IMPRESION_DE_DOCUMENTOS_ORDENES,Impresion de Documentos Business Object Order Endpoint,VB,ERP,/ic/builder/rt/impresion_de_documentos/live/resources/data/OrderHeader,OUTBOUND,FALSE
IMPRESION_DOCUMENTOS_TRANSACCIONES,,,IMP_DOC_TRANS,IMPRESION_DE_DOCUMENTOS_TRANSACCIONES,Impresion de Documentos Business Object Transaction Endpoint,VB,ERP,/ic/builder/rt/impresion_de_documentos/live/resources/data/TransactionHeader,OUTBOUND,FALSE
OUT_OEC_TO_OCC_CUSTOMERS,,,C2C_OCC_0008,OUT_OEC_TO_OCC_CUSTOMERS,Create customer in OCC,OCC,OEC,/ic/api/integration/v1/flows/rest/C2C_OCC_0008/1.0/OCC/inbound/api/processData,OUTBOUND,FALSE
OUT_OEC_TO_ERP_CUSTOMERS,,,C2C_ERP_0029,OUT_OEC_TO_ERP_CUSTOMERS,Create customers into ERP from OEC,ERP,OEC,/ic/api/integration/v1/flows/rest/C2C_ERP_0029/1.0/CustomerAR,OUTBOUND,FALSE
IN_OEC_UPDATE_CUSTOMERS,,,C2C_OEC_0024,IN_OEC_UPDATE_CUSTOMERS,Update OCC Organization ID in OEC Account,OEC,OCC,/ic/api/integration/v1/flows/rest/C2C_OEC_0024/1.0/OEC/inbound/api/updateData,INBOUND,FALSE
OUT_OCC_TO_OEC_SALES_ORDER,,3,C2C_OEC_0001,OUT_OCC_TO_OEC_SALES_ORDER,Get the order information to build the promotions data and send to ORDER_SYNCHRONIZATION_TO_OEC,OEC,OCC,/ic/api/integration/v1/flows/rest/C2C_OEC_0001/1.0/occ/outbound/api/processData,OUTBOUND,TRUE
SYNC_ORDER_TO_OEC,,,C2C_OEC_0006,SYNC_ORDER_TO_OEC,Synchronization of the order to Oracle Engagement Cloud,OEC,,/ic/api/integration/v1/flows/rest/C2C_OEC_0006/1.0/,INBOUND,FALSE
OUT_MFT_SEND_FILE_TO_OIC,,,C2C_OEC_0030,OUT_MFT_SEND_FILE_TO_OIC,Receive the file list of the same account to send each file to synchronization,OIC,OIC,/ic/api/integration/v1/flows/rest/C2C_OEC_0030/1.0/,,FALSE
OUT_MFT_EDI_FILE_TO_OEC,,20,C2C_OIC_0014,OUT_MFT_EDI_FILE_TO_OEC,Gets an EDI file from MFT and call the service to process the order to OEC.,OEC,EDI,/ic/ws/integration/v1/flows/soap/C2C_OIC_0014/3.0/,OUTBOUND,FALSE
OUT_WMS_INVENTORY_ADJUSTMENTS_ITEM_TO_ERP,,20,C2C_ERP_0057,OUT_WMS_INVENTORY_ADJUSTMENTS_ITEM_TO_ERP,"This integration makes the adjustment of Missing and Surplus inventory by Item in the ERP, through the operation of Account Alias.",ERP,WMS,/ic/api/integration/v1/flows/rest/C2C_ERP_0057/1.0/,OUTBOUND,TRUE
CREATE_APPLY_RECEIPT,,20,CREATE_APPLY_RECEIPT,CREATE_APPLY_RECEIPT,This integration order the receipt for application,oic,oic,/ic/api/integration/v1/flows/rest/CREATE_APPLY_RECEIPT/1.0/integrations/financials/createAndApplyReceipt,CREATE,FALSE
LOCKBOX_RECEIPTS,,,BO_LOCK_RCPT,BO_LOCK_RCPT,,,,/ic/builder/rt/Agencias_de_Cobranza/live/resources/data/Receipts,,FALSE
LOCKBOX_RECEIPTVALUES,,,BO_LOCK_RCPT_VALUES,BO_LOCK_RCPT_VALUES,,,,/ic/builder/rt/Agencias_de_Cobranza/live/resources/data/ReceiptValue,,FALSE
LOCKBOX_APPLICATIONS,,,BO_LOCK_RCPT_APPLICATIONS,BO_LOCK_RCPT_APPLICATIONS,,,,/ic/builder/rt/Agencias_de_Cobranza/live/resources/data/ReceiptApplications,,FALSE
SYNC_RECEIPT_TO_ERP,,20,C2C_ERP_0022,SYNC_RECEIPT_TO_ERP,,,,/ic/api/integration/v1/flows/rest/C2C_ERP_0022/1.0/,INBOUND,FALSE
CREATE_RECEIPT_TO_ERP,,,C2C_ERP_0021,CREATE_RECEIPT,,,,/ic/api/integration/v1/flows/rest/C2C_ERP_0021/1.0/,INBOUND,FALSE
OUT_ERP_PURCHASE_ORDER_TO_WMS,,20,C2C_ERP_0054,PURCHASE_ORDER_OSP,This integration extracts from a Data model in ERP Purchase Order and sends them to WMS,ERP,WMS,/ic/api/integration/v1/integrations/C2C_ERP_0054%7C01.00.0000/schedule/jobs,INBOUND,FALSE
OUT_ERP_CLOSED_PURCHASE_ORDER_TO_WMS,,20,C2C_ERP_0056,PURCHASE_ORDER_CLOSE_OSP,This integration extracts a data model in the ERP purchase order and sends it to WMS to enhance its closure.,EPR,WMS,/ic/api/integration/v1/integrations/C2C_ERP_0056%7C01.00.0000/schedule/jobs,INBOUND,FALSE
IN_TRANSACTION_ATTACHMENT_TO_ERP,,,C2C_ERP_0003,IN_TRANSACTION_ATTACHMENT_TO_ERP,,ERP,,/ic/api/integration/v1/flows/rest/C2C_ERP_0003/1.0/,INBOUND,FALSE
BO_VALUES_CONTROL_DOCUMENTAL,,,DOC_CONTROL_LOG,VALUES_CONTROL_DOCUMENTAL,,,,/ic/builder/rt/Control_Documental/live/resources/data/ValuesControlDocumental,,
IN_INVENTORY_UPDATE_TO_WMS,,20,ICWC-WMS-173,IN_INVENTORY_UPDATE_TO_WMS,Update Inventory to WMS,FTP,WMS,/ic/api/integration/v1/flows/rest/ICWC-WMS-173/1.0/metadata,INBOUND,FALSE
BO_DATES_UPDATE,,,BO_DATES_UPDATE,BO_DATES_UPDATE,BO of dates orders,VB,OIC,/ic/builder/rt/Distribucion_de_la_Pobreza_New_Version/live/resources/data/FacilityOnhand,BUSINESS_OBJECT,FALSE
OUT_WMS_TO_ERP_AUTOMATIC_PROCESS_OSP,,20,C2C_ERP_0006,OUT_WMS_TO_ERP_AUTOMATIC_PROCESS_OSP,"This integration performs the reception of a PO, validates and performs the WMS Receipt to ERP, consolidates items as well as Account Aliases and Receipt.",ERP,WMS,/ic/api/integration/v1/flows/rest/C2C_ERP_0006/1.0/,OUTBOUND,TRUE
BO_OPERATION_BATCH,,,BO_OPERATION_BATCH,BO_OPERATION_BATCH,Relative URI of BO Distribution Data,VB,OIC,/ic/builder/rt/Distribucion_de_la_Pobreza_New_Version/live/resources/data,BUSINESS_OBJECT,FALSE
BO_ORDERS_HEADER,,,BO_ORDERS_HEADER,BO_ORDERS_HEADER,Relative URI of BO Distribution Data,VB,OIC,/ic/builder/rt/Distribucion_de_la_Pobreza_New_Version/live/resources/data/DistributionHeader,BUSINESS_OBJECT,FALSE
BO_ORDERS_LINES,,,BO_ORDERS_LINES,BO_ORDERS_LINES,Relative URI of BO Onhand Data,VB,ERP,/ic/builder/rt/Distribucion_de_la_Pobreza_New_Version/live/resources/data/Distribution,BUSINESS_OBJECT,FALSE
BO_ONHAND_BATCH,,,BO_ONHAND_BATCH,BO_ONHAND_BATCH,,,,/ic/builder/rt/Distribucion_de_la_Pobreza_New_Version/live/resources/data/OnHandWMSInformation,,
BO_TRANSACTION_HEADER,,,BO_TRANSACTION_HEADER,BO_TRANSACTION_HEADER,Business Object Transaction Header relative URI for Billing Pool,VB,ERP,/ic/builder/rt/impresion_de_documentos/live/resources/data/TransactionHeader,BUSINESS_OBJECT,FALSE
BO_TRANSACTION_LINE,,,BO_TRANSACTION_LINE,BO_TRANSACTION_LINE,Business Object Transaction Line relative URI for Billing Pool,VB,ERP,/ic/builder/rt/impresion_de_documentos/live/resources/data/TransactionLine,BUSINESS_OBJECT,FALSE
BO_INVENTORY_MOVEMENTS_LOOKUP,,,BO_INVENTORY_MOVEMENTS_LOOKUP,BO_INVENTORY_MOVEMENTS,Business Object for Inventory Movements,VB,OIC,/ic/builder/rt/Integrations_Configuration/live/resources/data/InventoryMovementsLooku,BUSINESS OBJECT,FALSE
OUT_WMS_RMA_TO_ERP,,20,C2C_WMS_0010,OUT_WMS_RMA_TO_ERP,,ERP,WMS,/ic/api/integration/v1/flows/rest/C2C_WMS_0010/1.0/wms/outbound/api/rma/processData,OUT,TRUE
BO_DASHBOARD_INSTANCES,,,BO_DASHBOARD_INSTANCES,BO_DASHBOARD_INSTANCES,,,,/ic/builder/rt/cloud_integration_dashboard/live/resources/data/Instances,,FALSE
BO_BILLING_POOL,,,BO_BILLING_POOL,BO_BILLING_POOL,Relative base URI for Business Objects in Billing Pool,VB,ERP,/ic/builder/rt/impresion_de_documentos/live/resources/data,BUSINESS_OBJECT,FALSE
IN_ITEMS_TO_OEC,,,C2C_OEC_0029,IN_ITEMS_TO_OEC,SYNCHRONIZE ERP ITEMS TO OEC,OEC,ERP,/ic/api/integration/v1/flows/rest/C2C_OEC_0029/1.0/OMItems,INBOUND,FALSE
IN_ITEMS_TO_OCC,,,C2C_OCC_0007,IN_ITEMS_TO_OCC,SYNCHRONIZE ERP ITEMS TO OCC,OCC,ERP,/ic/api/integration/v1/flows/rest/C2C_OCC_0007/1.0/occ/outbound/api/processData,INBOUND,FALSE
OUT_PLM_ITEMS_PREPACK_TO_WMS,,,C2C_WMS_0003,OUT_PLM_ITEMS_PREPACK_TO_WMS,This integration synchronizes items from ERP to WMS considering the PREPACK requirement,WMS,ERP,/ic/api/integration/v1/integrations/C2C_WMS_0003%7C01.00.0000/schedule/jobs,OUT,FALSE
IN_PRICEBOOK_TO_OEC,,0,C2C_OEC_0016,IN_PRICEBOOK_TO_OEC,Synchronize Pricebooks from ERP to OEC,OEC,ERP,/ic/api/integration/v1/flows/rest/C2C_OEC_0016/1.0/priceBookModuleOEC,OUT,FALSE
OUT_OEC_TO_CDM_CUSTOMERS,,,C2C_CDM_0001,OUT_OEC_TO_CDM_CUSTOMERS,Synchronization customers in OEC to CDM,CDM,OEC,/ic/api/integration/v1/flows/rest/C2C_CDM_0001/1.0/CustomersCDM,OUT,FALSE
OUT_AR_TO_OCC_TRANSACTION_BY_TRX_NUMBER,,,C2C_ERP_0016,OUT_AR_TO_OCC_TRANSACTION_BY_TRX_NUMBER,"Obtaining header invoices, through the invoice number generated in AR",OCC,ERP,/ic/api/integration/v1/flows/rest/C2C_ERP_0016/1.0/getRecInvoiceXNoTransaction,OUT,FALSE
OUT_AR_TO_OCC_TRANSACTION_LINES_BY_TRX_NUMBER,,,C2C_ERP_0015,OUT_AR_TO_OCC_TRANSACTION_LINES_BY_TRX_NUMBER,"Obtaining line invoices, through the invoice number generated in AR.",OCC,ERP,/ic/api/integration/v1/flows/rest/C2C_ERP_0015/1.0/getRecInvoiceLinesXNoTransaction,OUT,FALSE
IN_UPDATE_CUSTOMER_ACCOUNT_BALANCE,,0,C2C_ERP_0052,IN_UPDATE_CUSTOMER_ACCOUNT_BALANCE,Update account Balance for Customer,ERP,OEC,/ic/api/integration/v1/flows/rest/C2C_ERP_0052/1.0/integration/accountBalance/processData,INBOUND,FALSE
OUT_OEC_TO_CUSTOMERS,,,C2C_OCC_0011,OUT_OEC_TO_CUSTOMERS,Service to manage information to create customer OEC and OCX,OEC,OCC/ERP,/ic/api/integration/v1/flows/rest/C2C_OCC_0011/1.0/OEC_TO_ERP_OCC,OUTBOUND,FALSE
IN_AR_TO_OEC_CUSTOMER_ATTRIBUTES,,,C2C_OEC_0014,IN_AR_TO_OEC_CUSTOMER_ATTRIBUTES,Updating of complementary information of clients in OEC,OEC,ERP,/ic/api/integration/v1/flows/rest/C2C_OEC_0014/1.0/updateCustomerModule,INBOUND,FALSE
OUT_WMS_TO_INV_ACC_ALIAS_RECEIPT_SCRAP,,2,ICWC_WMS-120,ACC ALIAS RECEIPT SCRAP,,WMS,,/ic/api/integration/v1/flows/rest/ICWC_WMS-120/1.0/wms/outbound/api/processData/receiveRB,OUT,TRUE
OUT_WMS_TO_INV_INTERCO_SHIPMENT_VERIFICATION,,2,ICWC_WMS-099,SHIPMENT VERIFICATION (INTERCO),Verification and Receiving of Intercompany related shipments,ERP,WMS,/ic/api/integration/v1/flows/rest/ICWC_WMS-099/1.0/wms/outbound/api/processData,OUT,TRUE
OUT_WMS_TO_INV_SUBINVENTORY_TRANSFER,,2,ICWC-WMS-155,SUBINVENTORY TRANSFER,Subinventory Transfer Process,ERP,WMS,/ic/api/integration/v1/flows/rest/ICWC_WMS-155/1.0/wms/outbound/api/processData,OUT,TRUE
OUT_WMS_TO_RCV_SHIPMENT_VERIFICATION,/ws/integration/v1/flows/soap/ICWC_WMS-100_CALLBACK/1.0/,2,ICWC_WMS-100,RCV SHIPMENT VERIFICATION,Verification and Receiving of Shipments for Sales/Transfer Orders,WMS,ERP,/ic/api/integration/v1/flows/rest/ICWC_WMS-100/1.0/wms/outbound/api/processData,OUT,TRUE
OUT_WMS_TO_RCV_VENDOR_RETURN,/ws/integration/v1/flows/soap/ICWC_WMS-098_CALLBACK/1.0/,2,ICWC_WMS-098,RCV VENDOR RETURN,,WMS,ERP,/ic/api/integration/v1/flows/rest/ICWC_WMS-098/1.0/wms/outbound/api/processData,OUT,TRUE
OUT_WMS_TO_WIE_ORDERLESS_RECEPTION,,2,ICWC_WMS-095,WOL RECEPTION,Report Orderless Completion,ERP,WMS,/ic/api/integration/v1/flows/rest/ICWC_WMS-095/1.0/wms/outbound/api/processData,OUT,TRUE
OUT_WMS_TO_WIE_ORDERLESS_RETURN,,2,ICWC_WMS-096,WOL RETURN,Report Orderless Return,ERP,WMS,/ic/api/integration/v1/flows/rest/ICWC_WMS-096/1.0/wms/outbound/api/processData,OUT,TRUE
OUT_WMS_TO_WIE_WORK_ORDER_RECEPTION,,2,ICWC_WMS-069,WO RECEPTION,Receive completed work orders,ERP,WMS,/ic/api/integration/v1/flows/rest/ICWC_WMS-069/1.0/wms/outbound/api/processData,OUT,TRUE
OUT_WMS_TO_WIE_WO_CLOSE_SHIPMENT_VERIFICATION,,2,ICWC_WMS-103,OUT_WMS_TO_WIE_WO_CLOSE_SHIPMENT_VERIFICATION,Close Work Order after verifying the shipment,ERP,WMS,/ic/api/integration/v1/flows/rest/ICWC_WMS-103/1.0/bimbo_test/wms/api/init_stage_interface,OUT,TRUE
OUT_WMS_TO_WMS_CONTAINER_TRANSFER_ORDER,,2,ICWC_WMS-104,TRANSFER ORDER (CONTAINER),Automatically create an order (Inbound Shipment) after shipping Transfer Oder Loads for containers,WMS,WMS,/ic/api/integration/v1/flows/rest/ICWC_WMS-104/1.0/wms/outbound/api/processData,OUT,TRUE
OUT_WMS_TO_WSH_OBLOAD_SHIP_CONFIRM,/ws/integration/v1/flows/soap/ICWC-WMS-167/1.0/,2,ICWC_WMS-068,SHIPMENT CONFIRMATION,Create Shipment for completed outbound load,ERP,WMS,/ic/api/integration/v1/flows/rest/ICWC_WMS-068/1.0/wms/outbound/api/processData,OUT,TRUE
IN_LGFDATA_TO_WMS,,2,C2C_WMS_0007,IN_LGFDATA_TO_WMS,Upload Lgfdata schema to WMS,OIC,WMS,/ic/api/integration/v1/flows/rest/C2C_WMS_0007/1.0/wms/inbound,IN,TRUE
SYNC_WMS_INVENTORY_HISTORY,,2,ICWC-WMS-158,SYNC_WMS_INVENTORY_HISTORY,Service that receives inventory history schema and routes to oic integrations,ERP,WMS,/ic/api/integration/v1/flows/rest/ICWC-WMS-158/1.0/,OUT,TRUE
OUT_WMS_TO_INV_ITEMS_RECLASSIFICATION,,2,ICWC-WMS-160,OUT_WMS_TO_INV_ITEMS_RECLASSIFICATION,,WMS,ERP,/ic/api/integration/v1/flows/rest/ICWC-WMS-160/1.0/wms/outbound/api/processData,OUT,TRUE
OUT_WMS_TO_INV_INVENTORY_TRANSACTIONS_MR,,2,ICWC_WMS-070,OUT_WMS_TO_INV_INVENTORY_TRANSACTIONS_MR,Reflect Manufactory related inventory transactions (Account Alias Issue/Receipt),ERP,WMS,/ic/api/integration/v1/flows/rest/ICWC_WMS-070/1.0/wms/outbound/api/processData,OUT,TRUE
OUT_WMS_TO_INV_INVENTORY_TRANSACTION_LOCKBAR,,2,ICWC-WMS-161,OUT_WMS_TO_INV_INVENTORY_TRANSACTION_LOCKBAR,Create Account Alias for Lockbar,ERP,WMS,/ic/api/integration/v1/flows/rest/ICWC-WMS-161/1.0/wms/outbound/api/processData,OUT,TRUE
OUT_WMS_TO_INV_INVENTORY_TRANSACTION_WASTE,,5,ICWC-WMS-162,OUT_WMS_TO_INV_INVENTORY_TRANSACTION_WASTE,Create account alias for inspections waste,ERP,WMS,/ic/api/integration/v1/flows/rest/ICWC-WMS-162/1.0/wms/outbound/api/processData,OUT,TRUE
OUT_WMS_TO_INV_INVENTORY_TRANSACTION_MOVEMENTS,,2,ICWC-WMS-163,OUT_WMS_TO_INV_INVENTORY_TRANSACTION_MOVEMENTS,Reflect Manufactory related inventory transactions (Account Alias Issue/Receipt),ERP,WMS,/ic/api/integration/v1/flows/rest/ICWC-WMS-163/1.0/wms/outbound/api/processData,OUT,TRUE
OUT_WMS_TO_INV_ACC_ALIAS_ISSUE_SCRAP,,2,ICWC-WMS-165,OUT_WMS_TO_INV_ACC_ALIAS_ISSUE_SCRAP,,ERP,WMS,,OUT,TRUE
OUT_WMS_TO_INV_ACC_ALIAS_ISSUE_SCRAP_CSV,,2,ICWC-WMS-164,OUT_WMS_TO_INV_ACC_ALIAS_ISSUE_SCRAP_CSV,,ERP,WMS,/ic/api/integration/v1/flows/rest/ICWC-WMS-164/1.0/wms/outbound/api/processData,OUT,TRUE
IN_INVENTORY_MOVEMENT_TO_ERP,,2,C2C_ERP_0045,IN_INVENTORY_MOVEMENT_TO_ERP,,ERP,WMS,/ic/api/integration/v1/flows/rest/C2C_ERP_0045/1.0/,IN,TRUE
OUT_WMS_TO_SHIPMENT_RECEIVING,/ws/integration/v1/flows/soap/ICWC-WMS-168/1.0/,2,ICWC-WMS-166,OUT_WMS_TO_SHIPMENT_RECEIVING,,ERP,WMS,/ic/api/integration/v1/flows/rest/ICWC-WMS-166/1.0/wms/outbound/api/processData,OUT,TRUE
SYNC_WMS_SHIPPED_LOAD,,2,ICWC-WMS-157,SYNC_WMS_SHIPPED_LOAD,,ERP,WMS,/ic/api/integration/v1/flows/rest/ICWC-WMS-157/1.0/,OUT,TRUE
UPDATE_WMS_INTERFACE,,2,C2C_WMS_0001,UPDATE_INTERFACE_CONFIGURATION,,OIC,WMS,/ic/api/integration/v1/flows/rest/C2C_WMS_0001/1.0/,OUT,TRUE
OUT_WMS_TO_VOICE_PICKING,,2,C2C_WMS_0006,OUT_WMS_TO_VOICE_PICKING,,VOICE PICKING,WMS,,OUT,TRUE
OUT_WMS_RMA_TO_ERP,/ws/integration/v1/flows/soap/C2C_WMS_0011/1.0/,,C2C_WMS_0010,OUT_WMS_RMA_TO_ERP,Confirm information from WMS in ERP,ERP,WMS,/ic/api/integration/v1/flows/rest/C2C_WMS_0010/1.0/wms/outbound/api/rma/processData,OUT,TRUE
OUT_ERP_RMA_TO_WMS,,2,C2C_ERP_0047,RMA_RETURN_ORDER,Extract RMA devolutions and passes them WMS,WMS,ERP,,OUT,TRUE
OUT_WMS_TO_RCV_RMA_RECEIPT_CONFIRMATION,/ws/integration/v1/flows/soap/ICWC_WMS-094_CALLBACK/1.0/,,ICWC_WMS-094,RMA RECEIPT CONFIRMATION,Receive confirmation on expected shipment lines for returns (RMA),ERP,WMS,/ic/api/integration/v1/flows/rest/ICWC_WMS-094/1.0/wms/outbound/api/processData,OUTBOUND,TRUE
INTEGRATION_MONITORING_DASHBOARD,,,INTEGRATION_MONITORING_DH_UPSERT_BY_REQUEST_ID,INTEGRATION_MONITORING_DASHBOARD,,,,/ic/builder/rt/cloud_integration_dashboard/1.0/resources/data/Dummy/1/action/upsertInstanceByRequestId,,
OUT_INV_TO_INV_ACCOUNT_ALIAS,/ws/integration/v1/flows/soap/ICWC-SCM-278_CALLBACK/1.0/,,ICWC-SCM-278,OUT_INV_TO_INV_ACCOUNT_ALIAS,Synchronize Equipment Transfer Order,ERP,ERP,/ic/api/integration/v1/integrations/ICWC-SCM-278|C01.00.0000/schedule/jobs,OUTBOUND,FALSE
OUT_AP_TO_AFIP_INVOICES,,,C2C_OIC_0012,OUT_AP_TO_AFIP_INVOICES,"Stores txt files into FTP directory, based on data extraction from data model",FTP,ERP,/ic/api/integration/v1/integrations/C2C_OIC_0012%7C01.00.0000/schedule/jobs,OUTBOUND,
